8 Собственные функции и использование их в tidyverse | Наука о данных в R для программы Цифровых гуманитарных исследований
…
Так же, используя функцию summarise_if(), можно применять какую-то операцию к каждой колонке, если она соответствует какому-то условию (обычно это используют для проверки типов переменных):

diamonds %>% 
  summarise_if(is.numeric, mean)

## # A tibble: 1 x 7
##   carat depth table price     x     y     z
##   <dbl> <dbl> <dbl> <dbl> <dbl> <dbl> <dbl>
## 1 0.798  61.7  57.5 3933.  5.73  5.73  3.54

Вот несколько примеров с mutate_..():

diamonds

## # A tibble: 53,940 x 10
##    carat cut       color clarity depth table price     x     y     z
##    <dbl> <ord>     <ord> <ord>   <dbl> <dbl> <int> <dbl> <dbl> <dbl>
##  1 0.23  Ideal     E     SI2      61.5    55   326  3.95  3.98  2.43
##  2 0.21  Premium   E     SI1      59.8    61   326  3.89  3.84  2.31
##  3 0.23  Good      E     VS1      56.9    65   327  4.05  4.07  2.31
##  4 0.290 Premium   I     VS2      62.4    58   334  4.2   4.23  2.63
##  5 0.31  Good      J     SI2      63.3    58   335  4.34  4.35  2.75
##  6 0.24  Very Good J     VVS2     62.8    57   336  3.94  3.96  2.48
##  7 0.24  Very Good I     VVS1     62.3    57   336  3.95  3.98  2.47
##  8 0.26  Very Good H     SI1      61.9    55   337  4.07  4.11  2.53
##  9 0.22  Fair      E     VS2      65.1    61   337  3.87  3.78  2.49
## 10 0.23  Very Good H     VS1      59.4    61   338  4     4.05  2.39
## # … with 53,930 more rows

diamonds %>% 
  mutate_at(vars(one_of(c("depth", "price", "carat"))), sqrt)

## # A tibble: 53,940 x 10
##    carat cut       color clarity depth table price     x     y     z
##    <dbl> <ord>     <ord> <ord>   <dbl> <dbl> <dbl> <dbl> <dbl> <dbl>
##  1 0.480 Ideal     E     SI2      7.84    55  18.1  3.95  3.98  2.43
##  2 0.458 Premium   E     SI1      7.73    61  18.1  3.89  3.84  2.31
##  3 0.480 Good      E     VS1      7.54    65  18.1  4.05  4.07  2.31
##  4 0.539 Premium   I     VS2      7.90    58  18.3  4.2   4.23  2.63
##  5 0.557 Good      J     SI2      7.96    58  18.3  4.34  4.35  2.75
##  6 0.490 Very Good J     VVS2     7.92    57  18.3  3.94  3.96  2.48
##  7 0.490 Very Good I     VVS1     7.89    57  18.3  3.95  3.98  2.47
##  8 0.510 Very Good H     SI1      7.87    55  18.4  4.07  4.11  2.53
##  9 0.469 Fair      E     VS2      8.07    61  18.4  3.87  3.78  2.49
## 10 0.480 Very Good H     VS1      7.71    61  18.4  4     4.05  2.39
## # … with 53,930 more rows

diamonds %>% 
  mutate_if(is.numeric, sqrt)

## # A tibble: 53,940 x 10
##    carat cut       color clarity depth table price     x     y     z
##    <dbl> <ord>     <ord> <ord>   <dbl> <dbl> <dbl> <dbl> <dbl> <dbl>
##  1 0.480 Ideal     E     SI2      7.84  7.42  18.1  1.99  1.99  1.56
##  2 0.458 Premium   E     SI1      7.73  7.81  18.1  1.97  1.96  1.52
##  3 0.480 Good      E     VS1      7.54  8.06  18.1  2.01  2.02  1.52
##  4 0.539 Premium   I     VS2      7.90  7.62  18.3  2.05  2.06  1.62
##  5 0.557 Good      J     SI2      7.96  7.62  18.3  2.08  2.09  1.66
##  6 0.490 Very Good J     VVS2     7.92  7.55  18.3  1.98  1.99  1.57
##  7 0.490 Very Good I     VVS1     7.89  7.55  18.3  1.99  1.99  1.57
##  8 0.510 Very Good H     SI1      7.87  7.42  18.4  2.02  2.03  1.59
##  9 0.469 Fair      E     VS2      8.07  7.81  18.4  1.97  1.94  1.58
## 10 0.480 Very Good H     VS1      7.71  7.81  18.4  2     2.01  1.55
## # … with 53,930 more rows
…
8.4 Reinvent the map function

В разделе про работу со списками мы обсуждали функию map(), оказывается в нее можно вставлять любую функцию, например, пересчитаем все цены в датасете diamonds в рубли:

diamonds %>% 
  mutate(price_rubl = map_dbl(price, function(x){x*64}))

## # A tibble: 53,940 x 11
##    carat cut       color clarity depth table price     x     y     z price_rubl
##    <dbl> <ord>     <ord> <ord>   <dbl> <dbl> <int> <dbl> <dbl> <dbl>      <dbl>
##  1 0.23  Ideal     E     SI2      61.5    55   326  3.95  3.98  2.43      20864
##  2 0.21  Premium   E     SI1      59.8    61   326  3.89  3.84  2.31      20864
##  3 0.23  Good      E     VS1      56.9    65   327  4.05  4.07  2.31      20928
##  4 0.290 Premium   I     VS2      62.4    58   334  4.2   4.23  2.63      21376
##  5 0.31  Good      J     SI2      63.3    58   335  4.34  4.35  2.75      21440
##  6 0.24  Very Good J     VVS2     62.8    57   336  3.94  3.96  2.48      21504
##  7 0.24  Very Good I     VVS1     62.3    57   336  3.95  3.98  2.47      21504
##  8 0.26  Very Good H     SI1      61.9    55   337  4.07  4.11  2.53      21568
##  9 0.22  Fair      E     VS2      65.1    61   337  3.87  3.78  2.49      21568
## 10 0.23  Very Good H     VS1      59.4    61   338  4     4.05  2.39      21632
## # … with 53,930 more rows
…
