6 Работа со списками | Наука о данных в R для программы Цифровых гуманитарных исследований
…
got_chars %>% 
  map_lgl("alive")

##  [1]  TRUE  TRUE  TRUE FALSE  TRUE FALSE FALSE  TRUE  TRUE  TRUE  TRUE FALSE
## [13]  TRUE  TRUE FALSE  TRUE  TRUE FALSE  TRUE FALSE  TRUE  TRUE  TRUE  TRUE
## [25] FALSE  TRUE FALSE FALSE  TRUE  TRUE

Можно даже создать новый датафрейм:

got_chars %>% 
  tibble(name = map_chr(., "name"), # точка обозначает, в какой аргумент должно все пайпиться
         id = map_dbl(., "id"),
         alive = map_lgl(., "alive"))

## # A tibble: 30 x 4
##    .                 name                  id alive
##    <list>            <chr>              <dbl> <lgl>
##  1 <named list [18]> Theon Greyjoy       1022 TRUE 
##  2 <named list [18]> Tyrion Lannister    1052 TRUE 
##  3 <named list [18]> Victarion Greyjoy   1074 TRUE 
##  4 <named list [18]> Will                1109 FALSE
##  5 <named list [18]> Areo Hotah          1166 TRUE 
##  6 <named list [18]> Chett               1267 FALSE
##  7 <named list [18]> Cressen             1295 FALSE
##  8 <named list [18]> Arianne Martell      130 TRUE 
##  9 <named list [18]> Daenerys Targaryen  1303 TRUE 
## 10 <named list [18]> Davos Seaworth      1319 TRUE 
## # … with 20 more rows

Также существует способ создание датафреймов на основе вектора значений при помощи функции enframe():

got_chars %>% 
  map_chr("name") %>% 
  enframe()

## # A tibble: 30 x 2
##     name value             
##    <int> <chr>             
##  1     1 Theon Greyjoy     
##  2     2 Tyrion Lannister  
##  3     3 Victarion Greyjoy 
##  4     4 Will              
##  5     5 Areo Hotah        
##  6     6 Chett             
##  7     7 Cressen           
##  8     8 Arianne Martell   
##  9     9 Daenerys Targaryen
## 10    10 Davos Seaworth    
## # … with 20 more rows
…
Если все еще не понятно, взгляните на нашу таблицу:

got_chars %>% 
  tibble(name = map_chr(., "name"), # точка обозначает, в какой аргумент должно все пайпиться
         alive = map_lgl(., "alive"))

## # A tibble: 30 x 3
##    .                 name               alive
##    <list>            <chr>              <lgl>
##  1 <named list [18]> Theon Greyjoy      TRUE 
##  2 <named list [18]> Tyrion Lannister   TRUE 
##  3 <named list [18]> Victarion Greyjoy  TRUE 
##  4 <named list [18]> Will               FALSE
##  5 <named list [18]> Areo Hotah         TRUE 
##  6 <named list [18]> Chett              FALSE
##  7 <named list [18]> Cressen            FALSE
##  8 <named list [18]> Arianne Martell    TRUE 
##  9 <named list [18]> Daenerys Targaryen TRUE 
## 10 <named list [18]> Davos Seaworth     TRUE 
## # … with 20 more rows
…
