3 tidyverse: Загрузка и трансформация данных | Наука о данных в R для программы Цифровых гуманитарных исследований
…
Этот датасет я переработал из данных, собранных для статьи The Gyllenhaal Experiment, написанной Расселом Гольденбергом и Мэттом Дэниэлсом для издания pudding. Они анализировали ошибки в правописании при поиске имен и фамилий звезд.

misspellings <- read_csv("https://raw.githubusercontent.com/agricolamz/DS_for_DH/master/data/misspelling_dataset.csv")

## Parsed with column specification:
## cols(
##   correct = col_character(),
##   spelling = col_character(),
##   count = col_double()
## )

misspellings

## # A tibble: 15,477 x 3
##    correct   spelling    count
##    <chr>     <chr>       <dbl>
##  1 deschanel deschanel   18338
##  2 deschanel dechanel     1550
##  3 deschanel deschannel    934
##  4 deschanel deschenel     404
##  5 deschanel deshanel      364
##  6 deschanel dechannel     359
##  7 deschanel deschanelle   316
##  8 deschanel dechanelle    192
##  9 deschanel deschanell    174
## 10 deschanel deschenal     165
## # … with 15,467 more rows
…
