9 Работа с текстами: gutenbergr, tidytext, udpipe | Наука о данных в R для программы Цифровых гуманитарных исследований
…
Например, сейчас мы можем понять, сколько книг на разных языках можно скачать из проекта:

gutenberg_metadata %>% 
  count(language, sort = TRUE)

# A tibble: 103 x 2
   language     n
   <chr>    <int>
 1 en       42719
 2 fr        2658
 3 de        1387
 4 fi        1341
 5 nl         723
 6 it         672
 7 pt         537
 8 es         470
 9 zh         408
10 el         216
# … with 93 more rows

Как видно, в основном это тексты на английском. Сколько авторов в датасете?

gutenberg_metadata %>% 
  count(author, sort = TRUE)

# A tibble: 16,190 x 2
   author                                  n
   <chr>                               <int>
 1 <NA>                                 3457
 2 Various                              3199
 3 Anonymous                             724
 4 Shakespeare, William                  317
 5 Lytton, Edward Bulwer Lytton, Baron   219
 6 Twain, Mark                           214
 7 Ebers, Georg                          171
 8 Dickens, Charles                      163
 9 Verne, Jules                          151
10 Unknown                               141
# … with 16,180 more rows

Сколько произведений Джейн Остин (не перепутайте с другими Остин) есть в датасете?

gutenberg_metadata %>% 
  filter(author == "Austen, Jane") %>% 
  distinct(gutenberg_id, title)

# A tibble: 29 x 2
   gutenberg_id title                    
          <int> <chr>                    
 1          105 Persuasion               
 2          121 Northanger Abbey         
 3          141 Mansfield Park           
 4          158 Emma                     
 5          161 Sense and Sensibility    
 6          946 Lady Susan               
 7         1212 Love and Freindship [sic]
 8         1342 Pride and Prejudice      
 9        19839 Emma                     
10        20682 Northanger Abbey         
# … with 19 more rows

Давайте скачаем “Эмму”:

emma <- gutenberg_download(158)

Determining mirror for Project Gutenberg from http://www.gutenberg.org/robot/harvest

Using mirror http://aleph.gutenberg.org

emma

# A tibble: 16,235 x 2
   gutenberg_id text            
          <int> <chr>           
 1          158 "EMMA"          
 2          158 ""              
 3          158 "By Jane Austen"
 4          158 ""              
 5          158 ""              
 6          158 ""              
 7          158 ""              
 8          158 "VOLUME I"      
 9          158 ""              
10          158 ""              
# … with 16,225 more rows

Можно скачивать сразу несколько книг. Давайте добавим еще “Леди Сьюзен”:

books <- gutenberg_download(c(158, 946), meta_fields = "title")
books

# A tibble: 18,760 x 3
   gutenberg_id text             title
          <int> <chr>            <chr>
 1          158 "EMMA"           Emma 
 2          158 ""               Emma 
 3          158 "By Jane Austen" Emma 
 4          158 ""               Emma 
 5          158 ""               Emma 
 6          158 ""               Emma 
 7          158 ""               Emma 
 8          158 "VOLUME I"       Emma 
 9          158 ""               Emma 
10          158 ""               Emma 
# … with 18,750 more rows
…
Сколько уникальных заголовков из базы данных содержит “Sherlock Holmes”?

9.2 Библиотека tidytext

Сейчас скачанные книги записаны в таблицу, где одна строка это один абзац. Хочется мочь посчитать слова. Для этого книги нужно привести в tidy формат и для этого написан пакет tidytext (онлайн книга доступна здесь):

library(tidytext)
books %>% 
  unnest_tokens(word, text)

# A tibble: 184,145 x 3
   gutenberg_id title word     
          <int> <chr> <chr>    
 1          158 Emma  emma     
 2          158 Emma  by       
 3          158 Emma  jane     
 4          158 Emma  austen   
 5          158 Emma  volume   
 6          158 Emma  i        
 7          158 Emma  chapter  
 8          158 Emma  i        
 9          158 Emma  emma     
10          158 Emma  woodhouse
# … with 184,135 more rows

Теперь можно посчитать самые частотные слова в обоих произведениях:

books %>% 
  unnest_tokens(word, text) %>% 
  count(title, word, sort = TRUE)

# A tibble: 10,285 x 3
   title word      n
   <chr> <chr> <int>
 1 Emma  to     5239
 2 Emma  the    5201
 3 Emma  and    4896
 4 Emma  of     4291
 5 Emma  i      3177
 6 Emma  a      3129
 7 Emma  it     2528
 8 Emma  her    2462
 9 Emma  was    2398
10 Emma  she    2340
# … with 10,275 more rows

Ну… Это было ожидаемо. Нужно убрать стопслова. Английские стопслова встроены в пакет (переменная stop_words):

books %>% 
  unnest_tokens(word, text) %>% 
  count(title, word, sort = TRUE) %>% 
  anti_join(stop_words)

Joining, by = "word"

# A tibble: 9,324 x 3
   title word          n
   <chr> <chr>     <int>
 1 Emma  emma        786
 2 Emma  miss        599
 3 Emma  harriet     415
 4 Emma  weston      389
 5 Emma  knightley   356
 6 Emma  elton       319
 7 Emma  jane        282
 8 Emma  time        279
 9 Emma  woodhouse   277
10 Emma  dear        241
# … with 9,314 more rows
…
Функция unnest_tokens() позволяет работать не только со словами, но и, напрмиер, с биграммами:

books %>% 
  unnest_tokens(word, text, token = "ngrams", n = 2)

# A tibble: 184,143 x 3
   gutenberg_id title word              
          <int> <chr> <chr>             
 1          158 Emma  emma by           
 2          158 Emma  by jane           
 3          158 Emma  jane austen       
 4          158 Emma  austen volume     
 5          158 Emma  volume i          
 6          158 Emma  i chapter         
 7          158 Emma  chapter i         
 8          158 Emma  i emma            
 9          158 Emma  emma woodhouse    
10          158 Emma  woodhouse handsome
# … with 184,133 more rows
…
