4 Визуализация данных | Наука о данных в R для программы Цифровых гуманитарных исследований
…
4 Визуализация данных

library("tidyverse")

4.1 Зачем визуализировать данные?

4.1.1 Квартет Анскомба

В работе Anscombe, F. J. (1973). “Graphs in Statistical Analysis” представлен следующий датасет:

quartet <- read_csv("https://raw.githubusercontent.com/agricolamz/DS_for_DH/master/data/anscombe.csv")
quartet

## # A tibble: 44 x 4
##       id dataset     x     y
##    <dbl>   <dbl> <dbl> <dbl>
##  1     1       1    10  8.04
##  2     1       2    10  9.14
##  3     1       3    10  7.46
##  4     1       4     8  6.58
##  5     2       1     8  6.95
##  6     2       2     8  8.14
##  7     2       3     8  6.77
##  8     2       4     8  5.76
##  9     3       1    13  7.58
## 10     3       2    13  8.74
## # … with 34 more rows
…
4.1.2 Датазаурус

В работе Matejka and Fitzmaurice (2017) “Same Stats, Different Graphs” были представлены следующие датасеты:

datasaurus <- read_csv("https://raw.githubusercontent.com/agricolamz/DS_for_DH/master/data/datasaurus.csv")
datasaurus

## # A tibble: 1,846 x 3
##    dataset     x     y
##    <chr>   <dbl> <dbl>
##  1 dino     55.4  97.2
##  2 dino     51.5  96.0
##  3 dino     46.2  94.5
##  4 dino     42.8  91.4
##  5 dino     40.8  88.3
##  6 dino     38.7  84.9
##  7 dino     35.6  79.9
##  8 dino     33.1  77.6
##  9 dino     29.0  74.5
## 10 dino     26.2  71.4
## # … with 1,836 more rows
…
Одна и та же информация может быть представлена в агрегированном и не агрегированном варианте:

misspelling <- read_csv("https://raw.githubusercontent.com/agricolamz/DS_for_DH/master/data/misspelling_dataset.csv")

## Parsed with column specification:
## cols(
##   correct = col_character(),
##   spelling = col_character(),
##   count = col_double()
## )

misspelling 

## # A tibble: 15,477 x 3
##    correct   spelling    count
##    <chr>     <chr>       <dbl>
##  1 deschanel deschanel   18338
##  2 deschanel dechanel     1550
##  3 deschanel deschannel    934
##  4 deschanel deschenel     404
##  5 deschanel deshanel      364
##  6 deschanel dechannel     359
##  7 deschanel deschanelle   316
##  8 deschanel dechanelle    192
##  9 deschanel deschanell    174
## 10 deschanel deschenal     165
## # … with 15,467 more rows
…
